\relax 
\citation{Gläser2017}
\citation{Boyack2017}
\citation{Velden2017b}
\citation{Gläser2017}
\citation{vanEck2017}
\citation{Koopman2017}
\citation{Velden2017}
\citation{vanEck2017}
\citation{Mikolov2013a}
\citation{Le14}
\citation{Mikolov2013a}
\citation{Mikolov2013a}
\citation{Le14}
\citation{Le14}
\@writefile{toc}{\contentsline {section}{\numberline {I}Introduction}{1}}
\@writefile{toc}{\contentsline {subsection}{\numberline {\unhbox \voidb@x \hbox {I-A}}The Data Set}{1}}
\@writefile{toc}{\contentsline {subsection}{\numberline {\unhbox \voidb@x \hbox {I-B}}Present Research}{1}}
\@writefile{toc}{\contentsline {subsubsection}{\numberline {\unhbox \voidb@x \hbox {I-B}1}Word and document vectors}{1}}
\@writefile{toc}{\contentsline {section}{\numberline {II}Model}{1}}
\citation{Wang2017}
\citation{Koopman2017}
\citation{Koopman2017}
\@writefile{lof}{\contentsline {figure}{\numberline {1}{\ignorespaces Word vectors create meaningful embeddings in an $n$-dimensional space.\relax }}{2}}
\providecommand*\caption@xref[2]{\@setref\relax\@undefined{#1}}
\newlabel{fig:we}{{1}{2}}
\@writefile{lof}{\contentsline {figure}{\numberline {2}{\ignorespaces In word2vec model, words are trained to predict their context (figure adapted from \cite  {Mikolov2013a}).\relax }}{2}}
\newlabel{fig:skipgram}{{2}{2}}
\@writefile{lof}{\contentsline {figure}{\numberline {3}{\ignorespaces Doc2vec model is a variant of the word2vec algorithm \cite  {Le14}.\relax }}{2}}
\newlabel{fig:skipgram}{{3}{2}}
\@writefile{toc}{\contentsline {section}{\numberline {III}Tools}{2}}
\@writefile{toc}{\contentsline {section}{\numberline {IV}Results}{2}}
\citation{Wang2017}
\citation{Wang2017}
\citation{Wang2017}
\newlabel{fig:inert}{{4a}{3}}
\newlabel{sub@fig:inert}{{a}{3}}
\newlabel{fig:inert10}{{4b}{3}}
\newlabel{sub@fig:inert10}{{b}{3}}
\@writefile{lof}{\contentsline {figure}{\numberline {4}{\ignorespaces Inertia values for $k = 2$ to $50$\relax }}{3}}
\newlabel{fig:inertias}{{4}{3}}
\@writefile{lof}{\contentsline {figure}{\numberline {5}{\ignorespaces Average silhouette scores for $k = 2$ to $100$\relax }}{3}}
\newlabel{fig:sil}{{5}{3}}
\citation{Velden2017b}
\citation{Velden2017b}
\citation{Koopman2017}
\bibcite{Boyack2017}{1}
\bibcite{Gläser2017}{2}
\bibcite{Koopman2017}{3}
\bibcite{Le14}{4}
\bibcite{Mikolov2013a}{5}
\bibcite{Mikolov2013b}{6}
\bibcite{vanEck2017}{7}
\bibcite{Velden2017b}{8}
\bibcite{Velden2017}{9}
\bibcite{Wang2017}{10}
\@writefile{toc}{\contentsline {section}{\numberline {V}Conclusion}{4}}
\@writefile{toc}{\contentsline {section}{References}{4}}
\@writefile{lot}{\contentsline {table}{\numberline {I}{\ignorespaces NMI Scores: The letters other than ours correspond to specific solutions within the special issue. See Velden et al. \cite  {Velden2017b} for more information.\relax }}{5}}
\newlabel{tab:logicalForms}{{I}{5}}
\newlabel{fig:}{{6a}{6}}
\newlabel{sub@fig:}{{a}{6}}
\newlabel{fig:}{{6b}{6}}
\newlabel{sub@fig:}{{b}{6}}
\newlabel{fig:}{{6c}{6}}
\newlabel{sub@fig:}{{c}{6}}
\@writefile{lof}{\contentsline {figure}{\numberline {6}{\ignorespaces Clustering with m10, m20, and m28 using PCA\relax }}{6}}
\newlabel{fig:PCA}{{6}{6}}
\newlabel{fig:hist10}{{7a}{6}}
\newlabel{sub@fig:hist10}{{a}{6}}
\newlabel{fig:hist20}{{7b}{6}}
\newlabel{sub@fig:hist20}{{b}{6}}
\newlabel{fig:ist28}{{7c}{6}}
\newlabel{sub@fig:ist28}{{c}{6}}
\newlabel{fig:histl}{{7d}{6}}
\newlabel{sub@fig:histl}{{d}{6}}
\@writefile{lof}{\contentsline {figure}{\numberline {7}{\ignorespaces Histograms for four different models\relax }}{6}}
\newlabel{fig:histograms}{{7}{6}}
\@writefile{lof}{\contentsline {figure}{\numberline {8}{\ignorespaces Most frequently encountered keywords in the articles in each cluster for m10\relax }}{7}}
\newlabel{fig:most5}{{8}{7}}
