\relax 
\citation{*}
\bibdata{refs}
\bibcite{Boyack2017}{1}
\bibcite{Gläser2017}{2}
\bibcite{Koopman2017}{3}
\bibcite{Le14}{4}
\bibcite{Mikolov2013a}{5}
\bibcite{Mikolov2013b}{6}
\bibcite{vanEck2017}{7}
\bibcite{Velden2017b}{8}
\bibcite{Velden2017}{9}
\bibcite{Wang2017}{10}
\bibstyle{plain}
